Introduction to R for Biology & Ecology – Bootstrapping and Confidence Intervals
…
Now we can scale up (working towards bootstrapping)

n<- 200

orig_sample <- penguins %>%
  slice_sample(n=n, replace=FALSE)

orig_sample

# A tibble: 200 × 8
   species   island bill_length_mm bill_depth_mm flipper_length_mm body_mass_g
   <fct>     <fct>           <dbl>         <dbl>             <int>       <int>
 1 Adelie    Biscoe           39.7          17.7               193        3200
 2 Gentoo    Biscoe           47.5          14                 212        4875
 3 Chinstrap Dream            50.5          18.4               200        3400
 4 Gentoo    Biscoe           46.6          14.2               210        4850
 5 Chinstrap Dream            46.6          17.8               193        3800
 6 Adelie    Dream            40.3          18.5               196        4350
 7 Gentoo    Biscoe           45.1          14.4               210        4400
 8 Adelie    Biscoe           35.3          18.9               187        3800
 9 Gentoo    Biscoe           45.1          14.5               207        5050
10 Gentoo    Biscoe           42.9          13.1               215        5000
# ℹ 190 more rows
# ℹ 2 more variables: sex <fct>, year <int>
…
#44.0 -- different because n=150 in the df but we sampled extra (n=200)

#by repeating this process many times we can see how much variation there is from sample to sample

pen_200_bs<- 1:1000 %>% #1000 = number of trials / resamples
  map_dfr(
    ~orig_sample %>%
      slice_sample(n=n, replace=TRUE) %>%
      summarize(meanbill=mean(bill_length_mm))) %>%
  mutate(n=n)

pen_200_bs #you will see we now have means for 1000 trials!

# A tibble: 1,000 × 2
   meanbill     n
      <dbl> <dbl>
 1     NA     200
 2     NA     200
 3     NA     200
 4     NA     200
 5     43.6   200
 6     NA     200
 7     NA     200
 8     NA     200
 9     44.0   200
10     NA     200
# ℹ 990 more rows
…
#check against original df
pen_df_bs<- 1:1000 %>% #1000 = number of trials / resamples
  map_dfr(
    ~penguins %>%
      slice_sample(n=n, replace=TRUE) %>%
      summarize(meanbill=mean(bill_length_mm))) %>%
  mutate(n=n)

pen_df_bs 

# A tibble: 1,000 × 2
   meanbill     n
      <dbl> <dbl>
 1     NA     200
 2     NA     200
 3     NA     200
 4     NA     200
 5     NA     200
 6     44.1   200
 7     NA     200
 8     NA     200
 9     NA     200
10     NA     200
# ℹ 990 more rows
…
We did it!

How to use the infer package to do CIs!

library(infer)

Warning: package 'infer' was built under R version 4.2.3

orig_sample

# A tibble: 200 × 8
   species   island bill_length_mm bill_depth_mm flipper_length_mm body_mass_g
   <fct>     <fct>           <dbl>         <dbl>             <int>       <int>
 1 Adelie    Biscoe           39.7          17.7               193        3200
 2 Gentoo    Biscoe           47.5          14                 212        4875
 3 Chinstrap Dream            50.5          18.4               200        3400
 4 Gentoo    Biscoe           46.6          14.2               210        4850
 5 Chinstrap Dream            46.6          17.8               193        3800
 6 Adelie    Dream            40.3          18.5               196        4350
 7 Gentoo    Biscoe           45.1          14.4               210        4400
 8 Adelie    Biscoe           35.3          18.9               187        3800
 9 Gentoo    Biscoe           45.1          14.5               207        5050
10 Gentoo    Biscoe           42.9          13.1               215        5000
# ℹ 190 more rows
# ℹ 2 more variables: sex <fct>, year <int>
…
#make bootstrap distribution 
boot_dist <-orig_sample %>%
  specify(response=bill_length_mm) %>%
  generate(reps=1000) %>%
  calculate(stat='mean')

Warning: Removed 2 rows containing missing values.

Setting `type = "bootstrap"` in `generate()`.

boot_dist

Response: bill_length_mm (numeric)
# A tibble: 1,000 × 2
   replicate  stat
       <int> <dbl>
 1         1  43.9
 2         2  43.2
 3         3  43.8
 4         4  43.0
 5         5  43.6
 6         6  43.9
 7         7  44.2
 8         8  43.9
 9         9  42.6
10        10  43.6
# ℹ 990 more rows
…
